^E:\GITHUB\GAMELOFT\TRAININGFRAMEWORK\NEWTRAININGFRAMEWORK\STDAFX.CPP
/c /IE:\GitHub\gameloft\TrainingFramework\\Include\Nvidia /ZI /nologo /W3 /WX- /Od /Oy- /D WIN32 /D _DEBUG /D _CONSOLE /D _MBCS /Gm /EHsc /RTC1 /MDd /GS /fp:precise /Zc:wchar_t /Zc:forScope /Yc"stdafx.h" /Fp"DEBUG-NVIDIA\NEWTRAININGFRAMEWORK.PCH" /Fo"DEBUG-NVIDIA\\" /Fd"DEBUG-NVIDIA\VC120.PDB" /Gd /TP /analyze- E:\GITHUB\GAMELOFT\TRAININGFRAMEWORK\NEWTRAININGFRAMEWORK\STDAFX.CPP
^E:\GITHUB\GAMELOFT\TRAININGFRAMEWORK\NEWTRAININGFRAMEWORK\CAMERA.CPP
/c /IE:\GitHub\gameloft\TrainingFramework\\Include\Nvidia /ZI /nologo /W3 /WX- /Od /Oy- /D WIN32 /D _DEBUG /D _CONSOLE /D _MBCS /Gm /EHsc /RTC1 /MDd /GS /fp:precise /Zc:wchar_t /Zc:forScope /Yu"stdafx.h" /Fp"DEBUG-NVIDIA\NEWTRAININGFRAMEWORK.PCH" /Fo"DEBUG-NVIDIA\\" /Fd"DEBUG-NVIDIA\VC120.PDB" /Gd /TP /analyze- E:\GITHUB\GAMELOFT\TRAININGFRAMEWORK\NEWTRAININGFRAMEWORK\CAMERA.CPP
^E:\GITHUB\GAMELOFT\TRAININGFRAMEWORK\NEWTRAININGFRAMEWORK\LIGHT.CPP
/c /IE:\GitHub\gameloft\TrainingFramework\\Include\Nvidia /ZI /nologo /W3 /WX- /Od /Oy- /D WIN32 /D _DEBUG /D _CONSOLE /D _MBCS /Gm /EHsc /RTC1 /MDd /GS /fp:precise /Zc:wchar_t /Zc:forScope /Yu"stdafx.h" /Fp"DEBUG-NVIDIA\NEWTRAININGFRAMEWORK.PCH" /Fo"DEBUG-NVIDIA\\" /Fd"DEBUG-NVIDIA\VC120.PDB" /Gd /TP /analyze- E:\GITHUB\GAMELOFT\TRAININGFRAMEWORK\NEWTRAININGFRAMEWORK\LIGHT.CPP
^E:\GITHUB\GAMELOFT\TRAININGFRAMEWORK\NEWTRAININGFRAMEWORK\MODELLOADER.CPP
/c /IE:\GitHub\gameloft\TrainingFramework\\Include\Nvidia /ZI /nologo /W3 /WX- /Od /Oy- /D WIN32 /D _DEBUG /D _CONSOLE /D _MBCS /Gm /EHsc /RTC1 /MDd /GS /fp:precise /Zc:wchar_t /Zc:forScope /Yu"stdafx.h" /Fp"DEBUG-NVIDIA\NEWTRAININGFRAMEWORK.PCH" /Fo"DEBUG-NVIDIA\\" /Fd"DEBUG-NVIDIA\VC120.PDB" /Gd /TP /analyze- E:\GITHUB\GAMELOFT\TRAININGFRAMEWORK\NEWTRAININGFRAMEWORK\MODELLOADER.CPP
^E:\GITHUB\GAMELOFT\TRAININGFRAMEWORK\NEWTRAININGFRAMEWORK\MODEL.CPP
/c /IE:\GitHub\gameloft\TrainingFramework\\Include\Nvidia /ZI /nologo /W3 /WX- /Od /Oy- /D WIN32 /D _DEBUG /D _CONSOLE /D _MBCS /Gm /EHsc /RTC1 /MDd /GS /fp:precise /Zc:wchar_t /Zc:forScope /Yu"stdafx.h" /Fp"DEBUG-NVIDIA\NEWTRAININGFRAMEWORK.PCH" /Fo"DEBUG-NVIDIA\\" /Fd"DEBUG-NVIDIA\VC120.PDB" /Gd /TP /analyze- E:\GITHUB\GAMELOFT\TRAININGFRAMEWORK\NEWTRAININGFRAMEWORK\MODEL.CPP
^E:\GITHUB\GAMELOFT\TRAININGFRAMEWORK\NEWTRAININGFRAMEWORK\NEWTRAININGFRAMEWORK.CPP
/c /IE:\GitHub\gameloft\TrainingFramework\\Include\Nvidia /ZI /nologo /W3 /WX- /Od /Oy- /D WIN32 /D _DEBUG /D _CONSOLE /D _MBCS /Gm /EHsc /RTC1 /MDd /GS /fp:precise /Zc:wchar_t /Zc:forScope /Yu"stdafx.h" /Fp"DEBUG-NVIDIA\NEWTRAININGFRAMEWORK.PCH" /Fo"DEBUG-NVIDIA\\" /Fd"DEBUG-NVIDIA\VC120.PDB" /Gd /TP /analyze- E:\GITHUB\GAMELOFT\TRAININGFRAMEWORK\NEWTRAININGFRAMEWORK\NEWTRAININGFRAMEWORK.CPP
^E:\GITHUB\GAMELOFT\TRAININGFRAMEWORK\NEWTRAININGFRAMEWORK\OBJECT.CPP
/c /IE:\GitHub\gameloft\TrainingFramework\\Include\Nvidia /ZI /nologo /W3 /WX- /Od /Oy- /D WIN32 /D _DEBUG /D _CONSOLE /D _MBCS /Gm /EHsc /RTC1 /MDd /GS /fp:precise /Zc:wchar_t /Zc:forScope /Yu"stdafx.h" /Fp"DEBUG-NVIDIA\NEWTRAININGFRAMEWORK.PCH" /Fo"DEBUG-NVIDIA\\" /Fd"DEBUG-NVIDIA\VC120.PDB" /Gd /TP /analyze- E:\GITHUB\GAMELOFT\TRAININGFRAMEWORK\NEWTRAININGFRAMEWORK\OBJECT.CPP
^E:\GITHUB\GAMELOFT\TRAININGFRAMEWORK\NEWTRAININGFRAMEWORK\RESOURCEMANAGER.CPP
/c /IE:\GitHub\gameloft\TrainingFramework\\Include\Nvidia /ZI /nologo /W3 /WX- /Od /Oy- /D WIN32 /D _DEBUG /D _CONSOLE /D _MBCS /Gm /EHsc /RTC1 /MDd /GS /fp:precise /Zc:wchar_t /Zc:forScope /Yu"stdafx.h" /Fp"DEBUG-NVIDIA\NEWTRAININGFRAMEWORK.PCH" /Fo"DEBUG-NVIDIA\\" /Fd"DEBUG-NVIDIA\VC120.PDB" /Gd /TP /analyze- E:\GITHUB\GAMELOFT\TRAININGFRAMEWORK\NEWTRAININGFRAMEWORK\RESOURCEMANAGER.CPP
^E:\GITHUB\GAMELOFT\TRAININGFRAMEWORK\NEWTRAININGFRAMEWORK\SCENEMANAGER.CPP
/c /IE:\GitHub\gameloft\TrainingFramework\\Include\Nvidia /ZI /nologo /W3 /WX- /Od /Oy- /D WIN32 /D _DEBUG /D _CONSOLE /D _MBCS /Gm /EHsc /RTC1 /MDd /GS /fp:precise /Zc:wchar_t /Zc:forScope /Yu"stdafx.h" /Fp"DEBUG-NVIDIA\NEWTRAININGFRAMEWORK.PCH" /Fo"DEBUG-NVIDIA\\" /Fd"DEBUG-NVIDIA\VC120.PDB" /Gd /TP /analyze- E:\GITHUB\GAMELOFT\TRAININGFRAMEWORK\NEWTRAININGFRAMEWORK\SCENEMANAGER.CPP
^E:\GITHUB\GAMELOFT\TRAININGFRAMEWORK\NEWTRAININGFRAMEWORK\SHADER.CPP
/c /IE:\GitHub\gameloft\TrainingFramework\\Include\Nvidia /ZI /nologo /W3 /WX- /Od /Oy- /D WIN32 /D _DEBUG /D _CONSOLE /D _MBCS /Gm /EHsc /RTC1 /MDd /GS /fp:precise /Zc:wchar_t /Zc:forScope /Yu"stdafx.h" /Fp"DEBUG-NVIDIA\NEWTRAININGFRAMEWORK.PCH" /Fo"DEBUG-NVIDIA\\" /Fd"DEBUG-NVIDIA\VC120.PDB" /Gd /TP /analyze- E:\GITHUB\GAMELOFT\TRAININGFRAMEWORK\NEWTRAININGFRAMEWORK\SHADER.CPP
^E:\GITHUB\GAMELOFT\TRAININGFRAMEWORK\NEWTRAININGFRAMEWORK\SPECIALOBJECT.CPP
/c /IE:\GitHub\gameloft\TrainingFramework\\Include\Nvidia /ZI /nologo /W3 /WX- /Od /Oy- /D WIN32 /D _DEBUG /D _CONSOLE /D _MBCS /Gm /EHsc /RTC1 /MDd /GS /fp:precise /Zc:wchar_t /Zc:forScope /Yu"stdafx.h" /Fp"DEBUG-NVIDIA\NEWTRAININGFRAMEWORK.PCH" /Fo"DEBUG-NVIDIA\\" /Fd"DEBUG-NVIDIA\VC120.PDB" /Gd /TP /analyze- E:\GITHUB\GAMELOFT\TRAININGFRAMEWORK\NEWTRAININGFRAMEWORK\SPECIALOBJECT.CPP
^E:\GITHUB\GAMELOFT\TRAININGFRAMEWORK\NEWTRAININGFRAMEWORK\TEXTURE2D.CPP
/c /IE:\GitHub\gameloft\TrainingFramework\\Include\Nvidia /ZI /nologo /W3 /WX- /Od /Oy- /D WIN32 /D _DEBUG /D _CONSOLE /D _MBCS /Gm /EHsc /RTC1 /MDd /GS /fp:precise /Zc:wchar_t /Zc:forScope /Yu"stdafx.h" /Fp"DEBUG-NVIDIA\NEWTRAININGFRAMEWORK.PCH" /Fo"DEBUG-NVIDIA\\" /Fd"DEBUG-NVIDIA\VC120.PDB" /Gd /TP /analyze- E:\GITHUB\GAMELOFT\TRAININGFRAMEWORK\NEWTRAININGFRAMEWORK\TEXTURE2D.CPP
^E:\GITHUB\GAMELOFT\TRAININGFRAMEWORK\NEWTRAININGFRAMEWORK\TEXTURECUBE.CPP
/c /IE:\GitHub\gameloft\TrainingFramework\\Include\Nvidia /ZI /nologo /W3 /WX- /Od /Oy- /D WIN32 /D _DEBUG /D _CONSOLE /D _MBCS /Gm /EHsc /RTC1 /MDd /GS /fp:precise /Zc:wchar_t /Zc:forScope /Yu"stdafx.h" /Fp"DEBUG-NVIDIA\NEWTRAININGFRAMEWORK.PCH" /Fo"DEBUG-NVIDIA\\" /Fd"DEBUG-NVIDIA\VC120.PDB" /Gd /TP /analyze- E:\GITHUB\GAMELOFT\TRAININGFRAMEWORK\NEWTRAININGFRAMEWORK\TEXTURECUBE.CPP
